fonction nom(ref T :tableau[1..13] de caractére) :vide ; 

  var i,j,n,f :entier;
      m: carctére;
  Début
pour i de 1 à 13 faire
Ecrire (" Donner le nom",m)
tant que m  dans ( Alban, Jim, Bob, Albatroz, Jinto, Bow, Hijo, Manu, Seb, Teilo, Charles, Xavier, Bechir) 
Lire (m) 
T[i]=m 
     pour n de 1 à 12 faire
      pour j allant de n+1 à 13 faire
        si T[j] < T[j-1] alors
          echange(T, j, j-1);
          fin si 
       
         fin pour 
      finpour
    finpour
fin pour 
retourner(T)
  fin
finfonction